{
    "componentChunkName": "component---node-modules-gatsby-theme-buzzing-src-gatsby-theme-timeline-templates-posts-query-js",
    "path": "/page/6",
    "result": {"data":{"site":{"siteMetadata":{"title":"你应该知道的事","author":"Buzzing.cc","description":"用中文浏览 Reddit小组 You Should Know 的热门内容","keywords":["buzzing","常识","你应该知道","You Should Know"],"siteUrl":"https://know.buzzing.cc","telegram":"@buzzingcc","iconUrl":"https://know.buzzing.cc/avatar.png","defaultSocialImageUrl":null,"social":[{"name":"You Should Know","url":"https://www.reddit.com/r/YouShouldKnow","external":true},{"name":"Buzzing","url":"https://www.buzzing.cc/","external":true}],"menuLinks":[],"disqus":null,"utterances":null,"localize":[{"title":"Buzzing on You Should Know","description":"See what's buzzing on You Should Know in your native language","keywords":["buzzing","You Should Know","Common Sense"],"locale":"en","social":{"name":null,"url":null,"external":null},"menuLinks":[{"name":"Weekly Selection","url":"/issues","external":null}]},{"title":"你應該知道的事","description":"用中文瀏覽 Reddit小組 You Should Know 的熱門內容","keywords":["buzzing","常識","你應該知道","You Should Know"],"locale":"zh-Hant","social":null,"menuLinks":[]},{"title":"知っておくべきこと","description":"人気の知っておくべきことを日本語で閲覧","keywords":["buzzing","知っておくべきこと"],"locale":"ja","social":null,"menuLinks":[]}]}},"tagsGroup":{"group":[{"fieldValue":"YouShouldKnow","totalCount":252},{"fieldValue":"reddit","totalCount":252}]},"allBlogPost":{"nodes":[{"id":"RedditPost-pwl16s","excerpt":"WHY YSK: you deserve to be comfortable and safe at work. Ergonomic product\nsupport is provided by some companies for no cost to the employee. If it is\nprovided, different companies will have different spending budgets which might\naffect what you’re able to get, but it’s worth looking into. If you…","slug":"/reddit/r/YouShouldKnow/comments/pwl16s/ysk_if_you_work_for_a_corporation_your_company/","title":"YSK: if you work for a corporation, your company may offer complimentary ergonomic products to make your job more comfortable and safe","date":"October 01, 2021","dateISO":"2021-10-01T11:20:51.000Z","datetime":"2021-10-01 11:20","tags":["YouShouldKnow","reddit"],"image":null,"imageAlt":null,"__typename":"SocialMediaPost","provider":"Reddit","thirdPartyId":"pwl16s","url":"https://www.reddit.com/r/YouShouldKnow/comments/pwl16s/ysk_if_you_work_for_a_corporation_your_company/","originalUrl":"https://www.reddit.com/r/YouShouldKnow/comments/pwl16s/ysk_if_you_work_for_a_corporation_your_company/","imageRemote":null,"video":null,"channel":"YouShouldKnow","channelUrl":"https://www.reddit.com/r/YouShouldKnow","author":"takikochan","authorUrl":"https://www.reddit.com/user/takikochan","authorImageRemote":null,"authorImage":null,"authorSlug":"takikochan","score":51,"views":null,"sharedCount":null,"likeCount":null,"sharedContent":null,"parent":{"localize":[{"title":"YSK: 企業にお勤めの方は、仕事をより快適に、より安全にするために、会社が人間工学に基づいた製品を無料で提供してくれるかもしれません。","the_new_excerpt":"WHY YSK: あなたは職場で快適で安全であるべきです。人間工学に基づいた製品\nサポートを無料で提供している企業もあります。提供されている場合\n提供されている場合、会社によって予算が異なるため、受けられる内容に影響があるかもしれません。\n提供されている場合、会社によって予算が異なるため、提供される製品に影響があるかもしれませんが、調べてみる価値はあると思います。もし、あなたが...","locale":"ja"},{"title":"YSK：如果你在一家公司工作，你的公司可能会提供免费的人体工程学产品，使你的工作更加舒适和安全。","the_new_excerpt":"为什么YSK：你应该在工作中获得舒适和安全。人体工程学产品\n一些公司为员工提供了免费的支持。如果它是\n提供，不同的公司会有不同的支出预算，这可能会影响你能得到的东西。\n这可能会影响你能够得到的东西，但这是值得研究的。如果你...","locale":"zh"},{"title":"YSK：如果你在一家公司工作，你的公司可能會提供免費的人體工程學產品，使你的工作更加舒適和安全。","the_new_excerpt":"爲什麼YSK：你應該在工作中獲得舒適和安全。人體工程學產品\n一些公司爲員工提供了免費的支持。如果它是\n提供，不同的公司會有不同的支出預算，這可能會影響你能得到的東西。\n這可能會影響你能夠得到的東西，但這是值得研究的。如果你...","locale":"zh-Hant"}]}},{"id":"RedditPost-pyzhps","excerpt":"Why YSK:\n\nI’m a beach guard and I have needed to be saved, by another guard, twice. The\nocean is a scary place. Granted I live in Southern California in an area with\nlarge swell and strong currents, but the ocean will ALWAYS be unpredictable, no\nmatter how safe it looks. There are so many things…","slug":"/reddit/r/YouShouldKnow/comments/pyzhps/ysk_you_should_never_swim_in_the_ocean_without_a/","title":"YSK You should never swim in the ocean without a lifeguard. Never. But if you do, you should know some standard safety rules.","date":"October 01, 2021","dateISO":"2021-10-01T05:33:53.000Z","datetime":"2021-10-01 05:33","tags":["YouShouldKnow","reddit"],"image":null,"imageAlt":null,"__typename":"SocialMediaPost","provider":"Reddit","thirdPartyId":"pyzhps","url":"https://www.reddit.com/r/YouShouldKnow/comments/pyzhps/ysk_you_should_never_swim_in_the_ocean_without_a/","originalUrl":"https://www.reddit.com/r/YouShouldKnow/comments/pyzhps/ysk_you_should_never_swim_in_the_ocean_without_a/","imageRemote":null,"video":null,"channel":"YouShouldKnow","channelUrl":"https://www.reddit.com/r/YouShouldKnow","author":"dreammeupfreddy","authorUrl":"https://www.reddit.com/user/dreammeupfreddy","authorImageRemote":null,"authorImage":null,"authorSlug":"dreammeupfreddy","score":66,"views":null,"sharedCount":null,"likeCount":null,"sharedContent":null,"parent":{"localize":[{"title":"YSK ライフガードのいない海では絶対に泳いではいけません。絶対にです。しかし、もし泳ぐのであれば、いくつかの標準的な安全規則を知っておくべきです。","the_new_excerpt":"なぜYSKなのか。\n\n私はビーチガードをしていますが、他のガードマンに助けられたことが2回あります。海は怖いところです。\n海は怖いところです。私は南カリフォルニアに住んでいて、大きなうねりと強い潮流のある地域に住んでいます。\n私は南カリフォルニアに住んでいますが、どんなに安全に見えても、海は常に予測不可能です。\nどんなに安全そうに見えても。いろんなことがありますよね。","locale":"ja"},{"title":"YSK 你不应该在没有救生员的情况下在海里游泳。永远不要。但如果你这样做，你应该知道一些标准的安全规则。","the_new_excerpt":"为什么是YSK。\n\n我是一名海滩警卫，我需要被另一名警卫拯救，两次。海洋\n海洋是一个可怕的地方。当然，我住在南加州，在一个有大浪和强流的地区。\n但海洋永远是不可预测的，无论它看起来多么安全。\n不管它看起来多么安全。有这么多的事情...","locale":"zh"},{"title":"YSK 你不應該在沒有救生員的情況下在海里游泳。永遠不要。但如果你這樣做，你應該知道一些標準的安全規則。","the_new_excerpt":"爲什麼是YSK。\n\n我是一名海灘警衛，我需要被另一名警衛拯救，兩次。海洋\n海洋是一個可怕的地方。當然，我住在南加州，在一個有大浪和強流的地區。\n但海洋永遠是不可預測的，無論它看起來多麼安全。\n不管它看起來多麼安全。有這麼多的事情...","locale":"zh-Hant"}]}}]}},"pageContext":{"basePath":"/","pageType":"home","tagsFilter":{"date":{"gt":"2000-12-25T10:54:58.000Z"}},"filter":{"date":{"gt":"2000-12-25T10:54:58.000Z"}},"limit":50,"skip":250,"totalPages":6,"total":252,"currentPage":6,"maxWidth":1024,"maxHeight":512,"siteMetadata":null,"locale":"zh","hrefLang":"zh-Hans","originalPath":"/page/6","dateFormat":"YYYY-MM-DD"}},
    "staticQueryHashes": ["1239077767","2744905544","3025052997","3280999885"]}