{
    "componentChunkName": "component---node-modules-gatsby-theme-buzzing-src-gatsby-theme-timeline-templates-posts-query-js",
    "path": "/page/7",
    "result": {"data":{"site":{"siteMetadata":{"title":"你应该知道的事","author":"Buzzing.cc","description":"用中文浏览 Reddit小组 You Should Know 的热门内容","keywords":["buzzing","常识","你应该知道","You Should Know"],"siteUrl":"https://know.buzzing.cc","telegram":"@buzzingcc","iconUrl":"https://know.buzzing.cc/avatar.png","defaultSocialImageUrl":null,"social":[{"name":"You Should Know","url":"https://www.reddit.com/r/YouShouldKnow","external":true},{"name":"Buzzing","url":"https://www.buzzing.cc/","external":true}],"menuLinks":[],"disqus":null,"utterances":null,"localize":[{"title":"Buzzing on You Should Know","description":"See what's buzzing on You Should Know in your native language","keywords":["buzzing","You Should Know","Common Sense"],"locale":"en","social":{"name":null,"url":null,"external":null},"menuLinks":[{"name":"Weekly Selection","url":"/issues","external":null}]},{"title":"你應該知道的事","description":"用中文瀏覽 Reddit小組 You Should Know 的熱門內容","keywords":["buzzing","常識","你應該知道","You Should Know"],"locale":"zh-Hant","social":null,"menuLinks":[]},{"title":"知っておくべきこと","description":"人気の知っておくべきことを日本語で閲覧","keywords":["buzzing","知っておくべきこと"],"locale":"ja","social":null,"menuLinks":[]}]}},"tagsGroup":{"group":[{"fieldValue":"YouShouldKnow","totalCount":306},{"fieldValue":"reddit","totalCount":306}]},"allBlogPost":{"nodes":[{"id":"RedditPost-pzfgk4","excerpt":"WHY YSK: Most of us carry our phones around on silent and may not realize that\nLive Photo’s have sound in them. Be careful what you’re saying before sending a\nphoto to someone!","slug":"/reddit/r/YouShouldKnow/comments/pzfgk4/ysk_apples_live_photos_include_sound/","title":"YSK Apple’s Live Photos include sound","date":"October 02, 2021","dateISO":"2021-10-02T02:36:44.000Z","datetime":"2021-10-02 02:36","tags":["YouShouldKnow","reddit"],"image":null,"imageAlt":null,"__typename":"SocialMediaPost","provider":"Reddit","thirdPartyId":"pzfgk4","url":"https://www.reddit.com/r/YouShouldKnow/comments/pzfgk4/ysk_apples_live_photos_include_sound/","originalUrl":"https://www.reddit.com/r/YouShouldKnow/comments/pzfgk4/ysk_apples_live_photos_include_sound/","imageRemote":null,"video":null,"channel":"YouShouldKnow","channelUrl":"https://www.reddit.com/r/YouShouldKnow","author":"OllIllllO","authorUrl":"https://www.reddit.com/user/OllIllllO","authorImageRemote":null,"authorImage":null,"authorSlug":"OllIllllO","score":59,"views":null,"sharedCount":null,"likeCount":null,"sharedContent":null,"parent":{"localize":[{"title":"YSK AppleのLive Photosには音が入っています。","the_new_excerpt":"WHY YSK: 私たちのほとんどは、携帯電話を無音で持ち歩いています。\nライブフォトには音が入っていることを知らないかもしれません。誰かに写真を送る前に、自分が何を言っているのか注意しましょう。\n誰かに写真を送る前に、言葉に気をつけてくださいね。","locale":"ja"},{"title":"YSK苹果的实时照片包括声音","the_new_excerpt":"为什么YSK：我们大多数人的手机都是静音状态，可能没有意识到\n现场照片里有声音。在发送照片给别人之前，请注意你所说的内容。\n照片给别人之前，请小心你所说的话","locale":"zh"},{"title":"YSK蘋果的實時照片包括聲音","the_new_excerpt":"爲什麼YSK：我們大多數人的手機都是靜音狀態，可能沒有意識到\n現場照片裏有聲音。在發送照片給別人之前，請注意你所說的內容。\n照片給別人之前，請小心你所說的話","locale":"zh-Hant"}]}},{"id":"RedditPost-pzaw9n","excerpt":"Why YSK: despite sounding the same, they are as different as chalk and cheese.","slug":"/reddit/r/YouShouldKnow/comments/pzaw9n/ysk_the_difference_between_counsellor_and/","title":"YSK the difference between \"counsellor\" and \"councillor\". A \"counsellor\" provides advice or therapy, while a \"councillor\" is someone who sits on a council or board.","date":"October 01, 2021","dateISO":"2021-10-01T18:45:37.000Z","datetime":"2021-10-01 18:45","tags":["YouShouldKnow","reddit"],"image":null,"imageAlt":null,"__typename":"SocialMediaPost","provider":"Reddit","thirdPartyId":"pzaw9n","url":"https://www.reddit.com/r/YouShouldKnow/comments/pzaw9n/ysk_the_difference_between_counsellor_and/","originalUrl":"https://www.reddit.com/r/YouShouldKnow/comments/pzaw9n/ysk_the_difference_between_counsellor_and/","imageRemote":null,"video":null,"channel":"YouShouldKnow","channelUrl":"https://www.reddit.com/r/YouShouldKnow","author":"brother_p","authorUrl":"https://www.reddit.com/user/brother_p","authorImageRemote":null,"authorImage":null,"authorSlug":"brother_p","score":95,"views":null,"sharedCount":null,"likeCount":null,"sharedContent":null,"parent":{"localize":[{"title":"YSKでは、「カウンセラー」と「カウンセラー」の違いについて説明します。カウンセラー」は、アドバイスやセラピーを提供する人で、「カウンセラー」は、議会や委員会に参加する人です。","the_new_excerpt":"なぜYSKかというと、同じように聞こえても、チョークとチーズのように違うからです。","locale":"ja"},{"title":"YSK \"顾问 \"和 \"议员 \"之间的区别。辅导员 \"提供建议或治疗，而 \"议员 \"则是在理事会或董事会任职的人。","the_new_excerpt":"为什么是YSK：尽管听起来一样，但它们就像粉笔和奶酪一样不同。","locale":"zh"},{"title":"YSK \"顧問 \"和 \"議員 \"之間的區別。輔導員 \"提供建議或治療，而 \"議員 \"則是在理事會或董事會任職的人。","the_new_excerpt":"爲什麼是YSK：儘管聽起來一樣，但它們就像粉筆和奶酪一樣不同。","locale":"zh-Hant"}]}},{"id":"RedditPost-pz8v2i","excerpt":"Why YSK: When t-shirt collars are stretched out, they can be shrunken by washing\nthem in hot water then dip just the collars in boiling hot or nearly boiling\nwater for 2-3 minutes (BE VERY CAREFUL!) then lay flat to dry in the sun. The\ncollar will shrink back to nearly its original shape. Never hang…","slug":"/reddit/r/YouShouldKnow/comments/pz8v2i/ysk_boiling_hot_water_will_shrink_stretched_out/","title":"YSK: Boiling Hot Water Will Shrink Stretched Out T-Shirt Collars","date":"October 01, 2021","dateISO":"2021-10-01T15:42:39.000Z","datetime":"2021-10-01 15:42","tags":["YouShouldKnow","reddit"],"image":null,"imageAlt":null,"__typename":"SocialMediaPost","provider":"Reddit","thirdPartyId":"pz8v2i","url":"https://www.reddit.com/r/YouShouldKnow/comments/pz8v2i/ysk_boiling_hot_water_will_shrink_stretched_out/","originalUrl":"https://www.reddit.com/r/YouShouldKnow/comments/pz8v2i/ysk_boiling_hot_water_will_shrink_stretched_out/","imageRemote":null,"video":null,"channel":"YouShouldKnow","channelUrl":"https://www.reddit.com/r/YouShouldKnow","author":"ThickAsAPlankton","authorUrl":"https://www.reddit.com/user/ThickAsAPlankton","authorImageRemote":null,"authorImage":null,"authorSlug":"ThickAsAPlankton","score":150,"views":null,"sharedCount":null,"likeCount":null,"sharedContent":null,"parent":{"localize":[{"title":"YSK: 熱湯をかけると伸びたTシャツの襟が縮む","the_new_excerpt":"なぜYSKかというと、Tシャツの襟が伸びてしまった場合、お湯で洗うことで縮めることができるからです。\nお湯で洗って、沸騰したお湯か沸騰寸前のお湯に襟だけを2～3分つけて（十分注意して\nその後、平置きにして天日干ししてください。襟は\n襟はほぼ元の形に縮みます。絶対に吊るさないでください...","locale":"ja"},{"title":"YSK：沸腾的热水会让拉长的T恤领子缩水","the_new_excerpt":"为什么是YSK：当T恤衫领子被拉长时，可以通过在热水中清洗，然后将领子浸入沸腾的热水或接近沸腾的热水中来缩减它们。\n在热水中清洗，然后将衣领浸入沸腾的热水或接近沸腾的水中2-3分钟。\n2-3分钟（要非常小心！），然后平铺在阳光下晒干。领子\n领子会缩回到几乎其原始形状。切勿悬挂...","locale":"zh"},{"title":"YSK：沸騰的熱水會讓拉長的T恤領子縮水","the_new_excerpt":"爲什麼是YSK：當T恤衫領子被拉長時，可以通過在熱水中清洗，然後將領子浸入沸騰的熱水或接近沸騰的熱水中來縮減它們。\n在熱水中清洗，然後將衣領浸入沸騰的熱水或接近沸騰的水中2-3分鐘。\n2-3分鐘（要非常小心！），然後平鋪在陽光下曬乾。領子\n領子會縮回到幾乎其原始形狀。切勿懸掛...","locale":"zh-Hant"}]}},{"id":"RedditPost-pz32bs","excerpt":"Why YSK: I used to always draft emails and say something like \"Refer to document\nXYZ\" and then forget the attachment. By changing my habits to always say the\nword \"attached\", or a variation of that word, applications llike Outlook will\nremind you to include the attachment. Simply including changing…","slug":"/reddit/r/YouShouldKnow/comments/pz32bs/ysk_always_put_the_word_attached_in_an_email_when/","title":"YSK always put the word \"attached\" in an email when you are going to put an attachment because if you forget to put an attachment, most email applications will remind you to attach it.","date":"October 01, 2021","dateISO":"2021-10-01T12:41:37.000Z","datetime":"2021-10-01 12:41","tags":["YouShouldKnow","reddit"],"image":null,"imageAlt":null,"__typename":"SocialMediaPost","provider":"Reddit","thirdPartyId":"pz32bs","url":"https://www.reddit.com/r/YouShouldKnow/comments/pz32bs/ysk_always_put_the_word_attached_in_an_email_when/","originalUrl":"https://www.reddit.com/r/YouShouldKnow/comments/pz32bs/ysk_always_put_the_word_attached_in_an_email_when/","imageRemote":null,"video":null,"channel":"YouShouldKnow","channelUrl":"https://www.reddit.com/r/YouShouldKnow","author":"ihaveneverdonemeth","authorUrl":"https://www.reddit.com/user/ihaveneverdonemeth","authorImageRemote":null,"authorImage":null,"authorSlug":"ihaveneverdonemeth","score":114,"views":null,"sharedCount":null,"likeCount":null,"sharedContent":null,"parent":{"localize":[{"title":"YSKでは、添付ファイルを付けることを忘れても、ほとんどのメールアプリケーションが添付するように促してくれるので、添付ファイルを付けようとするときは、必ずメールに「添付」という言葉を入れます。","the_new_excerpt":"なぜYSKかというと、以前はメールの下書きに「ドキュメントを参照してください。\nXYZを参照してください」などと言って、添付ファイルを忘れてしまうことがありました。私の習慣を変えて、常に「添付」という言葉を使うようにしました。\n習慣を変えることで、Outlookのようなアプリケーションが、添付ファイルを添付するように\nOutlookなどのアプリケーションが、添付ファイルを添付するように促してくれます。単純に変更を含める...","locale":"ja"},{"title":"YSK在准备放附件的时候，总是在邮件中写上 \"附件 \"二字，因为如果你忘记放附件，大多数电子邮件应用程序会提醒你放附件。","the_new_excerpt":"为什么是YSK：我过去总是在起草电子邮件时说 \"参考文件\nXYZ \"之类的话，然后就忘记了附件。通过改变我的习惯，总是说\n词 \"附件\"，或该词的变体，像Outlook这样的应用程序就会提醒你包括附件。\n提醒你要包括附件。简单地包括改变...","locale":"zh"},{"title":"YSK在準備放附件的時候，總是在郵件中寫上 \"附件 \"二字，因爲如果你忘記放附件，大多數電子郵件應用程序會提醒你放附件。","the_new_excerpt":"爲什麼是YSK：我過去總是在起草電子郵件時說 \"參考文件\nXYZ \"之類的話，然後就忘記了附件。通過改變我的習慣，總是說\n詞 \"附件\"，或該詞的變體，像Outlook這樣的應用程序就會提醒你包括附件。\n提醒你要包括附件。簡單地包括改變...","locale":"zh-Hant"}]}},{"id":"RedditPost-pwl16s","excerpt":"WHY YSK: you deserve to be comfortable and safe at work. Ergonomic product\nsupport is provided by some companies for no cost to the employee. If it is\nprovided, different companies will have different spending budgets which might\naffect what you’re able to get, but it’s worth looking into. If you…","slug":"/reddit/r/YouShouldKnow/comments/pwl16s/ysk_if_you_work_for_a_corporation_your_company/","title":"YSK: if you work for a corporation, your company may offer complimentary ergonomic products to make your job more comfortable and safe","date":"October 01, 2021","dateISO":"2021-10-01T11:20:51.000Z","datetime":"2021-10-01 11:20","tags":["YouShouldKnow","reddit"],"image":null,"imageAlt":null,"__typename":"SocialMediaPost","provider":"Reddit","thirdPartyId":"pwl16s","url":"https://www.reddit.com/r/YouShouldKnow/comments/pwl16s/ysk_if_you_work_for_a_corporation_your_company/","originalUrl":"https://www.reddit.com/r/YouShouldKnow/comments/pwl16s/ysk_if_you_work_for_a_corporation_your_company/","imageRemote":null,"video":null,"channel":"YouShouldKnow","channelUrl":"https://www.reddit.com/r/YouShouldKnow","author":"takikochan","authorUrl":"https://www.reddit.com/user/takikochan","authorImageRemote":null,"authorImage":null,"authorSlug":"takikochan","score":51,"views":null,"sharedCount":null,"likeCount":null,"sharedContent":null,"parent":{"localize":[{"title":"YSK: 企業にお勤めの方は、仕事をより快適に、より安全にするために、会社が人間工学に基づいた製品を無料で提供してくれるかもしれません。","the_new_excerpt":"WHY YSK: あなたは職場で快適で安全であるべきです。人間工学に基づいた製品\nサポートを無料で提供している企業もあります。提供されている場合\n提供されている場合、会社によって予算が異なるため、受けられる内容に影響があるかもしれません。\n提供されている場合、会社によって予算が異なるため、提供される製品に影響があるかもしれませんが、調べてみる価値はあると思います。もし、あなたが...","locale":"ja"},{"title":"YSK：如果你在一家公司工作，你的公司可能会提供免费的人体工程学产品，使你的工作更加舒适和安全。","the_new_excerpt":"为什么YSK：你应该在工作中获得舒适和安全。人体工程学产品\n一些公司为员工提供了免费的支持。如果它是\n提供，不同的公司会有不同的支出预算，这可能会影响你能得到的东西。\n这可能会影响你能够得到的东西，但这是值得研究的。如果你...","locale":"zh"},{"title":"YSK：如果你在一家公司工作，你的公司可能會提供免費的人體工程學產品，使你的工作更加舒適和安全。","the_new_excerpt":"爲什麼YSK：你應該在工作中獲得舒適和安全。人體工程學產品\n一些公司爲員工提供了免費的支持。如果它是\n提供，不同的公司會有不同的支出預算，這可能會影響你能得到的東西。\n這可能會影響你能夠得到的東西，但這是值得研究的。如果你...","locale":"zh-Hant"}]}},{"id":"RedditPost-pyzhps","excerpt":"Why YSK:\n\nI’m a beach guard and I have needed to be saved, by another guard, twice. The\nocean is a scary place. Granted I live in Southern California in an area with\nlarge swell and strong currents, but the ocean will ALWAYS be unpredictable, no\nmatter how safe it looks. There are so many things…","slug":"/reddit/r/YouShouldKnow/comments/pyzhps/ysk_you_should_never_swim_in_the_ocean_without_a/","title":"YSK You should never swim in the ocean without a lifeguard. Never. But if you do, you should know some standard safety rules.","date":"October 01, 2021","dateISO":"2021-10-01T05:33:53.000Z","datetime":"2021-10-01 05:33","tags":["YouShouldKnow","reddit"],"image":null,"imageAlt":null,"__typename":"SocialMediaPost","provider":"Reddit","thirdPartyId":"pyzhps","url":"https://www.reddit.com/r/YouShouldKnow/comments/pyzhps/ysk_you_should_never_swim_in_the_ocean_without_a/","originalUrl":"https://www.reddit.com/r/YouShouldKnow/comments/pyzhps/ysk_you_should_never_swim_in_the_ocean_without_a/","imageRemote":null,"video":null,"channel":"YouShouldKnow","channelUrl":"https://www.reddit.com/r/YouShouldKnow","author":"dreammeupfreddy","authorUrl":"https://www.reddit.com/user/dreammeupfreddy","authorImageRemote":null,"authorImage":null,"authorSlug":"dreammeupfreddy","score":66,"views":null,"sharedCount":null,"likeCount":null,"sharedContent":null,"parent":{"localize":[{"title":"YSK ライフガードのいない海では絶対に泳いではいけません。絶対にです。しかし、もし泳ぐのであれば、いくつかの標準的な安全規則を知っておくべきです。","the_new_excerpt":"なぜYSKなのか。\n\n私はビーチガードをしていますが、他のガードマンに助けられたことが2回あります。海は怖いところです。\n海は怖いところです。私は南カリフォルニアに住んでいて、大きなうねりと強い潮流のある地域に住んでいます。\n私は南カリフォルニアに住んでいますが、どんなに安全に見えても、海は常に予測不可能です。\nどんなに安全そうに見えても。いろんなことがありますよね。","locale":"ja"},{"title":"YSK 你不应该在没有救生员的情况下在海里游泳。永远不要。但如果你这样做，你应该知道一些标准的安全规则。","the_new_excerpt":"为什么是YSK。\n\n我是一名海滩警卫，我需要被另一名警卫拯救，两次。海洋\n海洋是一个可怕的地方。当然，我住在南加州，在一个有大浪和强流的地区。\n但海洋永远是不可预测的，无论它看起来多么安全。\n不管它看起来多么安全。有这么多的事情...","locale":"zh"},{"title":"YSK 你不應該在沒有救生員的情況下在海里游泳。永遠不要。但如果你這樣做，你應該知道一些標準的安全規則。","the_new_excerpt":"爲什麼是YSK。\n\n我是一名海灘警衛，我需要被另一名警衛拯救，兩次。海洋\n海洋是一個可怕的地方。當然，我住在南加州，在一個有大浪和強流的地區。\n但海洋永遠是不可預測的，無論它看起來多麼安全。\n不管它看起來多麼安全。有這麼多的事情...","locale":"zh-Hant"}]}}]}},"pageContext":{"basePath":"/","pageType":"home","tagsFilter":{"date":{"gt":"2000-12-25T10:54:58.000Z"}},"filter":{"date":{"gt":"2000-12-25T10:54:58.000Z"}},"limit":50,"skip":300,"totalPages":7,"total":306,"currentPage":7,"maxWidth":1024,"maxHeight":512,"siteMetadata":null,"locale":"zh","hrefLang":"zh-Hans","originalPath":"/page/7","dateFormat":"YYYY-MM-DD"}},
    "staticQueryHashes": ["1239077767","2744905544","3025052997","3280999885"]}