{
    "componentChunkName": "component---node-modules-gatsby-theme-buzzing-src-gatsby-theme-timeline-templates-posts-query-js",
    "path": "/en/page/9",
    "result": {"data":{"site":{"siteMetadata":{"title":"你应该知道的事","author":"Buzzing.cc","description":"用中文浏览 Reddit小组 You Should Know 的热门内容","keywords":["buzzing","常识","你应该知道","You Should Know"],"siteUrl":"https://know.buzzing.cc","telegram":"@buzzingcc","iconUrl":"https://know.buzzing.cc/avatar.png","defaultSocialImageUrl":null,"social":[{"name":"You Should Know","url":"https://www.reddit.com/r/YouShouldKnow","external":true},{"name":"Buzzing","url":"https://www.buzzing.cc/","external":true}],"menuLinks":[],"disqus":null,"utterances":null,"localize":[{"title":"Buzzing on You Should Know","description":"See what's buzzing on You Should Know in your native language","keywords":["buzzing","You Should Know","Common Sense"],"locale":"en","social":{"name":null,"url":null,"external":null},"menuLinks":[{"name":"Weekly Selection","url":"/issues","external":null}]},{"title":"你應該知道的事","description":"用中文瀏覽 Reddit小組 You Should Know 的熱門內容","keywords":["buzzing","常識","你應該知道","You Should Know"],"locale":"zh-Hant","social":null,"menuLinks":[]},{"title":"知っておくべきこと","description":"人気の知っておくべきことを日本語で閲覧","keywords":["buzzing","知っておくべきこと"],"locale":"ja","social":null,"menuLinks":[]}]}},"tagsGroup":{"group":[{"fieldValue":"YouShouldKnow","totalCount":401},{"fieldValue":"reddit","totalCount":401}]},"allBlogPost":{"nodes":[{"id":"RedditPost-pyzhps","excerpt":"Why YSK:\n\nI’m a beach guard and I have needed to be saved, by another guard, twice. The\nocean is a scary place. Granted I live in Southern California in an area with\nlarge swell and strong currents, but the ocean will ALWAYS be unpredictable, no\nmatter how safe it looks. There are so many things…","slug":"/reddit/r/YouShouldKnow/comments/pyzhps/ysk_you_should_never_swim_in_the_ocean_without_a/","title":"YSK You should never swim in the ocean without a lifeguard. Never. But if you do, you should know some standard safety rules.","date":"October 01, 2021","dateISO":"2021-10-01T05:33:53.000Z","datetime":"2021-10-01 05:33","tags":["YouShouldKnow","reddit"],"image":null,"imageAlt":null,"__typename":"SocialMediaPost","provider":"Reddit","thirdPartyId":"pyzhps","url":"https://www.reddit.com/r/YouShouldKnow/comments/pyzhps/ysk_you_should_never_swim_in_the_ocean_without_a/","originalUrl":"https://www.reddit.com/r/YouShouldKnow/comments/pyzhps/ysk_you_should_never_swim_in_the_ocean_without_a/","imageRemote":null,"video":null,"channel":"YouShouldKnow","channelUrl":"https://www.reddit.com/r/YouShouldKnow","author":"dreammeupfreddy","authorUrl":"https://www.reddit.com/user/dreammeupfreddy","authorImageRemote":null,"authorImage":null,"authorSlug":"dreammeupfreddy","score":66,"views":null,"sharedCount":null,"likeCount":null,"sharedContent":null,"parent":{"localize":[{"title":"YSK ライフガードのいない海では絶対に泳いではいけません。絶対にです。しかし、もし泳ぐのであれば、いくつかの標準的な安全規則を知っておくべきです。","the_new_excerpt":"なぜYSKなのか。\n\n私はビーチガードをしていますが、他のガードマンに助けられたことが2回あります。海は怖いところです。\n海は怖いところです。私は南カリフォルニアに住んでいて、大きなうねりと強い潮流のある地域に住んでいます。\n私は南カリフォルニアに住んでいますが、どんなに安全に見えても、海は常に予測不可能です。\nどんなに安全そうに見えても。いろんなことがありますよね。","locale":"ja"},{"title":"YSK 你不应该在没有救生员的情况下在海里游泳。永远不要。但如果你这样做，你应该知道一些标准的安全规则。","the_new_excerpt":"为什么是YSK。\n\n我是一名海滩警卫，我需要被另一名警卫拯救，两次。海洋\n海洋是一个可怕的地方。当然，我住在南加州，在一个有大浪和强流的地区。\n但海洋永远是不可预测的，无论它看起来多么安全。\n不管它看起来多么安全。有这么多的事情...","locale":"zh"},{"title":"YSK 你不應該在沒有救生員的情況下在海里游泳。永遠不要。但如果你這樣做，你應該知道一些標準的安全規則。","the_new_excerpt":"爲什麼是YSK。\n\n我是一名海灘警衛，我需要被另一名警衛拯救，兩次。海洋\n海洋是一個可怕的地方。當然，我住在南加州，在一個有大浪和強流的地區。\n但海洋永遠是不可預測的，無論它看起來多麼安全。\n不管它看起來多麼安全。有這麼多的事情...","locale":"zh-Hant"}]}}]}},"pageContext":{"basePath":"/","pageType":"home","tagsFilter":{"date":{"gt":"2000-12-25T10:54:58.000Z"}},"filter":{"date":{"gt":"2000-12-25T10:54:58.000Z"}},"limit":50,"skip":400,"totalPages":9,"total":401,"currentPage":9,"maxWidth":1024,"maxHeight":512,"siteMetadata":null,"locale":"en","hrefLang":"en-US","originalPath":"/page/9","dateFormat":"MM/DD/YYYY"}},
    "staticQueryHashes": ["1239077767","2744905544","3025052997","3280999885"]}